…
``` r
vancouver_trees <- vancouver_trees %>%
  mutate(diameter_cm = diameter *2.54) 
vancouver_trees_subset<-vancouver_trees %>%
  select(tree_id, genus_name, diameter_cm, species_name, on_street, neighbourhood_name,   date_planted, height_range_id)
vancouver_trees_subset
```

    ## # A tibble: 146,611 × 8
    ##    tree_id genus_name diameter_cm species_n…¹ on_st…² neigh…³ date_pla…⁴ heigh…⁵
    ##      <dbl> <chr>            <dbl> <chr>       <chr>   <chr>   <date>       <dbl>
    ##  1  149556 ULMUS             25.4 AMERICANA   W 58TH… MARPOLE 1999-01-13       2
    ##  2  149563 ZELKOVA           25.4 SERRATA     W 58TH… MARPOLE 1996-05-31       4
    ##  3  149579 STYRAX            10.2 JAPONICA    WINDSO… KENSIN… 1993-11-22       3
    ##  4  149590 FRAXINUS          45.7 AMERICANA   E 39TH… KENSIN… 1996-04-29       4
    ##  5  149604 ACER              22.9 CAMPESTRE   WINDSO… KENSIN… 1993-12-17       2
    ##  6  149616 PYRUS             12.7 CALLERYANA  W 61ST… MARPOLE NA               2
    ##  7  149617 ACER              38.1 PLATANOIDES SHERBR… KENSIN… 1993-12-16       3
    ##  8  149618 ACER              35.6 PLATANOIDES SHERBR… KENSIN… 1993-12-16       3
    ##  9  149619 ACER              40.6 PLATANOIDES SHERBR… KENSIN… 1993-12-16       2
    ## 10  149625 FRAXINUS          19.0 AMERICANA   E 39TH… KENSIN… 1993-12-03       2
    ## # … with 146,601 more rows, and abbreviated variable names ¹​species_name,
    ## #   ²​on_street, ³​neighbourhood_name, ⁴​date_planted, ⁵​height_range_id
…
Be sure to explain your reasoning for this task. Show us the “before”
and “after”.

<!--------------------------- Start your work below --------------------------->

``` r
# untidy
vancouver_trees_subset_untidy <- vancouver_trees_subset %>%
  pivot_wider(names_from = genus_name,
              values_from = diameter_cm)
vancouver_trees_subset_untidy
```

    ## # A tibble: 146,611 × 103
    ##    tree_id species_name on_str…¹ neigh…² date_pla…³ heigh…⁴ ULMUS ZELKOVA STYRAX
    ##      <dbl> <chr>        <chr>    <chr>   <date>       <dbl> <dbl>   <dbl>  <dbl>
    ##  1  149556 AMERICANA    W 58TH … MARPOLE 1999-01-13       2  25.4    NA     NA  
    ##  2  149563 SERRATA      W 58TH … MARPOLE 1996-05-31       4  NA      25.4   NA  
    ##  3  149579 JAPONICA     WINDSOR… KENSIN… 1993-11-22       3  NA      NA     10.2
    ##  4  149590 AMERICANA    E 39TH … KENSIN… 1996-04-29       4  NA      NA     NA  
    ##  5  149604 CAMPESTRE    WINDSOR… KENSIN… 1993-12-17       2  NA      NA     NA  
    ##  6  149616 CALLERYANA   W 61ST … MARPOLE NA               2  NA      NA     NA  
    ##  7  149617 PLATANOIDES  SHERBRO… KENSIN… 1993-12-16       3  NA      NA     NA  
    ##  8  149618 PLATANOIDES  SHERBRO… KENSIN… 1993-12-16       3  NA      NA     NA  
    ##  9  149619 PLATANOIDES  SHERBRO… KENSIN… 1993-12-16       2  NA      NA     NA  
    ## 10  149625 AMERICANA    E 39TH … KENSIN… 1993-12-03       2  NA      NA     NA  
    ## # … with 146,601 more rows, 94 more variables: FRAXINUS <dbl>, ACER <dbl>,
    ## #   PYRUS <dbl>, TILIA <dbl>, HIBISCUS <dbl>, LIQUIDAMBAR <dbl>, PRUNUS <dbl>,
    ## #   CARPINUS <dbl>, QUERCUS <dbl>, CRATAEGUS <dbl>, ROBINIA <dbl>,
    ## #   PARROTIA <dbl>, CORNUS <dbl>, MAGNOLIA <dbl>, CATALPA <dbl>, FAGUS <dbl>,
    ## #   GLEDITSIA <dbl>, CHAMAECYPARIS <dbl>, SORBUS <dbl>, POPULUS <dbl>,
    ## #   CERCIDIPHYLLUM <dbl>, AESCULUS <dbl>, THUJA <dbl>, NOTHOFAGUS <dbl>,
    ## #   MALUS <dbl>, PINUS <dbl>, ABIES <dbl>, SALIX <dbl>, GYMNOCLADUS <dbl>, …

``` r
#convert back
vancouver_trees_subset_tidy <- vancouver_trees_subset_untidy %>%
  pivot_longer(cols = c(ULMUS:ALBIZIA),
               names_to = "genus_name",
               values_to = "diameter_cm",
               values_drop_na = TRUE) %>%
  select(tree_id, genus_name, diameter_cm, everything())
vancouver_trees_subset_tidy
```

    ## # A tibble: 146,611 × 8
    ##    tree_id genus_name diameter_cm species_n…¹ on_st…² neigh…³ date_pla…⁴ heigh…⁵
    ##      <dbl> <chr>            <dbl> <chr>       <chr>   <chr>   <date>       <dbl>
    ##  1  149556 ULMUS             25.4 AMERICANA   W 58TH… MARPOLE 1999-01-13       2
    ##  2  149563 ZELKOVA           25.4 SERRATA     W 58TH… MARPOLE 1996-05-31       4
    ##  3  149579 STYRAX            10.2 JAPONICA    WINDSO… KENSIN… 1993-11-22       3
    ##  4  149590 FRAXINUS          45.7 AMERICANA   E 39TH… KENSIN… 1996-04-29       4
    ##  5  149604 ACER              22.9 CAMPESTRE   WINDSO… KENSIN… 1993-12-17       2
    ##  6  149616 PYRUS             12.7 CALLERYANA  W 61ST… MARPOLE NA               2
    ##  7  149617 ACER              38.1 PLATANOIDES SHERBR… KENSIN… 1993-12-16       3
    ##  8  149618 ACER              35.6 PLATANOIDES SHERBR… KENSIN… 1993-12-16       3
    ##  9  149619 ACER              40.6 PLATANOIDES SHERBR… KENSIN… 1993-12-16       2
    ## 10  149625 FRAXINUS          19.0 AMERICANA   E 39TH… KENSIN… 1993-12-03       2
    ## # … with 146,601 more rows, and abbreviated variable names ¹​species_name,
    ## #   ²​on_street, ³​neighbourhood_name, ⁴​date_planted, ⁵​height_range_id
…
# For research question 1, I choose the acer genus since acer is the most planted tree in Vancouver.
acer_count <- vancouver_trees %>%
  filter(genus_name == "ACER") %>%
  group_by(species_name) %>%
  summarize(count = n()) %>%
  arrange(desc(count)) %>%
  mutate(planted_level = case_when(count < 50 ~ "very less",
                                   count < 100 ~ "less",
                                   count < 500 ~ "moderate",
                                   count < 3000 ~ "high",
                                   count < 15000 ~ "very high"))
acer_count
```

    ## # A tibble: 31 × 3
    ##    species_name   count planted_level
    ##    <chr>          <int> <chr>        
    ##  1 PLATANOIDES    11963 very high    
    ##  2 RUBRUM          8467 very high    
    ##  3 FREEMANI   X    4164 very high    
    ##  4 CAMPESTRE       3477 very high    
    ##  5 PSEUDOPLATANUS  2091 high         
    ##  6 TRUNCATUM       1918 high         
    ##  7 PALMATUM        1037 high         
    ##  8 GRISEUM          510 high         
    ##  9 CAPPADOCICUM     417 moderate     
    ## 10 MACROPHYLLUM     398 moderate     
    ## # … with 21 more rows

``` r
# Since there are more than 30 species, I only select the planted_level with high

acer_selected <- vancouver_trees %>%
  filter(species_name %in% c("PLATANOIDES", "RUBRUM", "CAMPESTRE") | agrepl("FREEMANI X", species_name), diameter_cm < 200) %>%
  select(species_name, diameter_cm)
acer_selected
```

    ## # A tibble: 28,067 × 2
    ##    species_name diameter_cm
    ##    <chr>              <dbl>
    ##  1 CAMPESTRE           22.9
    ##  2 PLATANOIDES         38.1
    ##  3 PLATANOIDES         35.6
    ##  4 PLATANOIDES         40.6
    ##  5 PLATANOIDES         45.7
    ##  6 CAMPESTRE           26.0
    ##  7 PLATANOIDES         49.5
    ##  8 PLATANOIDES         35.6
    ##  9 CAMPESTRE           24.8
    ## 10 PLATANOIDES         34.3
    ## # … with 28,057 more rows
…
By looking at the box plot above, I can see that the diameter varies
among the different species in the acer genus.

``` r
# Question 2
species_count <- vancouver_trees %>%
  group_by(species_name) %>%
  summarize(count = n()) %>%
  arrange(desc(count))
species_count
```

    ## # A tibble: 283 × 2
    ##    species_name count
    ##    <chr>        <int>
    ##  1 SERRULATA    13357
    ##  2 CERASIFERA   12031
    ##  3 PLATANOIDES  11963
    ##  4 RUBRUM        8467
    ##  5 AMERICANA     5515
    ##  6 SYLVATICA     5285
    ##  7 BETULUS       5195
    ##  8 EUCHLORA   X  4427
    ##  9 FREEMANI   X  4164
    ## 10 CAMPESTRE     3477
    ## # … with 273 more rows
…
<!-------------------------- Start your work below ---------------------------->

``` r
acer_selected <- vancouver_trees %>%
  filter(species_name %in% c("PLATANOIDES", "RUBRUM", "CAMPESTRE") | agrepl("FREEMANI X", species_name), diameter_cm < 200) %>%
  select(species_name, diameter_cm)
acer_selected
```

    ## # A tibble: 28,067 × 2
    ##    species_name diameter_cm
    ##    <chr>              <dbl>
    ##  1 CAMPESTRE           22.9
    ##  2 PLATANOIDES         38.1
    ##  3 PLATANOIDES         35.6
    ##  4 PLATANOIDES         40.6
    ##  5 PLATANOIDES         45.7
    ##  6 CAMPESTRE           26.0
    ##  7 PLATANOIDES         49.5
    ##  8 PLATANOIDES         35.6
    ##  9 CAMPESTRE           24.8
    ## 10 PLATANOIDES         34.3
    ## # … with 28,057 more rows
…
<!-------------------------- Start your work below ---------------------------->

**Task Number**: 1

``` r
acer_selectet_reorder <- vancouver_trees %>%
  filter(species_name %in% c("PLATANOIDES", "RUBRUM", "CAMPESTRE") | agrepl("FREEMANI X", species_name), diameter_cm < 200) %>%
  select(species_name, diameter_cm) %>%
  mutate(species_name = fct_reorder(species_name, diameter_cm))
acer_selectet_reorder
```

    ## # A tibble: 28,067 × 2
    ##    species_name diameter_cm
    ##    <fct>              <dbl>
    ##  1 CAMPESTRE           22.9
    ##  2 PLATANOIDES         38.1
    ##  3 PLATANOIDES         35.6
    ##  4 PLATANOIDES         40.6
    ##  5 PLATANOIDES         45.7
    ##  6 CAMPESTRE           26.0
    ##  7 PLATANOIDES         49.5
    ##  8 PLATANOIDES         35.6
    ##  9 CAMPESTRE           24.8
    ## 10 PLATANOIDES         34.3
    ## # … with 28,057 more rows
…
<!----------------------------------------------------------------------------->
<!-------------------------- Start your work below ---------------------------->

**Task Number**: 3

``` r
vancouver_trees_subset <- vancouver_trees_subset %>%
  mutate(quarter = yearquarter(date_planted))
vancouver_trees_subset
```

    ## # A tibble: 146,611 × 9
    ##    tree_id genus_name diame…¹ speci…² on_st…³ neigh…⁴ date_pla…⁵ heigh…⁶ quarter
    ##      <dbl> <chr>        <dbl> <chr>   <chr>   <chr>   <date>       <dbl>   <qtr>
    ##  1  149556 ULMUS         25.4 AMERIC… W 58TH… MARPOLE 1999-01-13       2 1999 Q1
    ##  2  149563 ZELKOVA       25.4 SERRATA W 58TH… MARPOLE 1996-05-31       4 1996 Q2
    ##  3  149579 STYRAX        10.2 JAPONI… WINDSO… KENSIN… 1993-11-22       3 1993 Q4
    ##  4  149590 FRAXINUS      45.7 AMERIC… E 39TH… KENSIN… 1996-04-29       4 1996 Q2
    ##  5  149604 ACER          22.9 CAMPES… WINDSO… KENSIN… 1993-12-17       2 1993 Q4
    ##  6  149616 PYRUS         12.7 CALLER… W 61ST… MARPOLE NA               2      NA
    ##  7  149617 ACER          38.1 PLATAN… SHERBR… KENSIN… 1993-12-16       3 1993 Q4
    ##  8  149618 ACER          35.6 PLATAN… SHERBR… KENSIN… 1993-12-16       3 1993 Q4
    ##  9  149619 ACER          40.6 PLATAN… SHERBR… KENSIN… 1993-12-16       2 1993 Q4
    ## 10  149625 FRAXINUS      19.0 AMERIC… E 39TH… KENSIN… 1993-12-03       2 1993 Q4
    ## # … with 146,601 more rows, and abbreviated variable names ¹​diameter_cm,
    ## #   ²​species_name, ³​on_street, ⁴​neighbourhood_name, ⁵​date_planted,
    ## #   ⁶​height_range_id
…
