…
### 5. Filter observations in your data according to your own criteria. Think of what you’d like to explore - again, if this was the `titanic` dataset, I may want to narrow my search down to passengers born in a particular year…

By exploring the data, I realized there are almost 100 tree genera in
Vancouver. I will narrow down my analysis to 3 genus to make it easier
to analyze. I first choose the maple family(acer) because it is the most
popular tree in Canada. Then I randomly choose two other genera from the
data.

``` r
tree_narrow <- vancouver_trees %>%
  filter(genus_name %in% c("PYRUS","ACER","STYRAX"), diameter_cm != 0)
tree_narrow
```

    ## # A tibble: 39,892 × 21
    ##    tree_id civic_number std_st…¹ genus…² speci…³ culti…⁴ commo…⁵ assig…⁶ root_…⁷
    ##      <dbl>        <dbl> <chr>    <chr>   <chr>   <chr>   <chr>   <chr>   <chr>  
    ##  1  149579         4994 WINDSOR… STYRAX  JAPONI… <NA>    JAPANE… N       N      
    ##  2  149604         5032 WINDSOR… ACER    CAMPES… <NA>    HEDGE … N       N      
    ##  3  149616          585 W 61ST … PYRUS   CALLER… CHANTI… CHANTI… N       N      
    ##  4  149617         4909 SHERBRO… ACER    PLATAN… COLUMN… COLUMN… N       N      
    ##  5  149618         4925 SHERBRO… ACER    PLATAN… COLUMN… COLUMN… N       N      
    ##  6  149619         4969 SHERBRO… ACER    PLATAN… COLUMN… COLUMN… N       N      
    ##  7  149640         6968 SELKIRK… ACER    PLATAN… COLUMN… COLUMN… N       N      
    ##  8  149647          509 E 16TH … STYRAX  JAPONI… <NA>    JAPANE… N       N      
    ##  9  149658         5208 WINDSOR… STYRAX  JAPONI… <NA>    JAPANE… N       N      
    ## 10  149680         5311 WINDSOR… ACER    CAMPES… <NA>    HEDGE … N       N      
    ## # … with 39,882 more rows, 12 more variables: plant_area <chr>,
    ## #   on_street_block <dbl>, on_street <chr>, neighbourhood_name <chr>,
    ## #   street_side_name <chr>, height_range_id <dbl>, diameter <dbl>, curb <chr>,
    ## #   date_planted <date>, longitude <dbl>, latitude <dbl>, diameter_cm <dbl>,
    ## #   and abbreviated variable names ¹​std_street, ²​genus_name, ³​species_name,
    ## #   ⁴​cultivar_name, ⁵​common_name, ⁶​assigned, ⁷​root_barrier
…
``` r
sampling_summary <- 
  pyrus_sampling %>%
  summarize(mean = mean(sample_mean),
            median = median(sample_median))
sampling_summary
```

    ## # A tibble: 1,000 × 3
    ##    replicate  mean median
    ##        <int> <dbl>  <dbl>
    ##  1         1  12.7  10.2 
    ##  2         2  11.3   9.84
    ##  3         3  12.2  10.2 
    ##  4         4  10.8   7.62
    ##  5         5  11.5   8.89
    ##  6         6  11.5  10.2 
    ##  7         7  11.6  10.2 
    ##  8         8  11.4  10.2 
    ##  9         9  11.5  10.2 
    ## 10        10  11.4   8.57
    ## # … with 990 more rows
…
``` r
# Summarizing option 2

tree_obs <- vancouver_trees %>%
  group_by(genus_name) %>%
  summarize(count = n()) %>%
  arrange(desc(count))
tree_obs
```

    ## # A tibble: 97 × 2
    ##    genus_name count
    ##    <chr>      <int>
    ##  1 ACER       36062
    ##  2 PRUNUS     30683
    ##  3 FRAXINUS    7381
    ##  4 TILIA       6773
    ##  5 QUERCUS     6119
    ##  6 CARPINUS    5806
    ##  7 FAGUS       4808
    ##  8 MALUS       4173
    ##  9 MAGNOLIA    3899
    ## 10 CRATAEGUS   3864
    ## # … with 87 more rows
…
